Residuals Leverage
…
Leverage就是槓桿的意思。這種圖的意義在於檢查數據分析項目中是否有特別極端的點。

在這裏我們引入了一個非常重要的指標：Cook距離。我們在線性模型裏用Cook距離分析一個點是否非常“influential。”一般來說距離大於0.5的點就需要引起注意了。在這裏我們借用了物理學電磁場理論中的等電勢理念。那個1，和0.5分別就是Cook距離爲1和0.5的等高線。

需注意，即使R將這些特殊的點標記了出來，也不等於他們一定需要被刪除。還是要參考Cook距離的絕對大小。

在第四張圖中可以看見最右邊有一個點離左邊的點們都非常遠. 我們必須找出此極端點並刪除他.

high_lev<-  plm4 %>%
  augment() %>%
  arrange(desc(.hat), .cooksd)

high_lev

# A tibble: 6,346 x 16
   Price_Meter Note  Total_Floor Rank_Market Rank_Taipei Unit_Floor
         <dbl> <chr>       <dbl>       <dbl>       <dbl>      <dbl>
 1       18.2  1~5             2           1           3          2
 2        8.24 1~5            12           6           7          7
 3       18.9  1~5            10           5           1          1
 4       24.9  1~5            18           4           4         17
 5       22.3  1~5             5           4           4          5
 6       16.2  1~5             5           4           4          5
 7       15.8  1~5             5           4           4          5
 8       13.8  over…           4           2           2          2
 9       29.1  1~5            23           4           4         23
10       13.0  6~15            4           4           4          4
# … with 6,336 more rows, and 10 more variables: Total_Area <dbl>,
#   Unit_Room <dbl>, Land_Area <dbl>, Unit_Bath <dbl>, .fitted <dbl>,
#   .resid <dbl>, .hat <dbl>, .sigma <dbl>, .cooksd <dbl>,
#   .std.resid <dbl>
…
